/*
 * Copyright (c) 2016-2020 Marco Cawthorne <marco@icculus.org>
 *
 * Permission to use, copy, modify, and distribute this software for any
 * purpose with or without fee is hereby granted, provided that the above
 * copyright notice and this permission notice appear in all copies.
 *
 * THE SOFTWARE IS PROVIDED "AS IS" AND THE AUTHOR DISCLAIMS ALL WARRANTIES
 * WITH REGARD TO THIS SOFTWARE INCLUDING ALL IMPLIED WARRANTIES OF
 * MERCHANTABILITY AND FITNESS. IN NO EVENT SHALL THE AUTHOR BE LIABLE FOR
 * ANY SPECIAL, DIRECT, INDIRECT, OR CONSEQUENTIAL DAMAGES OR ANY DAMAGES
 * WHATSOEVER RESULTING FROM LOSS OF MIND, USE, DATA OR PROFITS, WHETHER
 * IN AN ACTION OF CONTRACT, NEGLIGENCE OR OTHER TORTIOUS ACTION, ARISING
 * OUT OF OR IN CONNECTION WITH THE USE OR PERFORMANCE OF THIS SOFTWARE.
 */

/*QUAKED monster_osprey (0 0.8 0.8) (-480 -480 -112) (480 480 24)

HALF-LIFE (1998) ENTITY

Bell Boeing VV-22 Osprey

*/

class monster_osprey:NSMonster
{
	void(void) monster_osprey;
	virtual void(void) Respawn;

	virtual void Spawned(void);
};

void monster_osprey::monster_osprey(void)
{
}

void monster_osprey::Spawned(void)
{
	netname = "Osprey";
	model = "models/osprey.mdl";
	base_mins = [-480,-480,-112];
	base_maxs = [480,480,24];
	super::Spawned();
}


void monster_osprey::Respawn(void)
{
	super::Respawn();
	takedamage = DAMAGE_NO;
	iBleeds = FALSE;
}